Fieldbook summary — fieldbook_summary • inti
…
library(inti)
library(googlesheets4)

url <- paste0("https://docs.google.com/spreadsheets/d/"
              , "15uwCgQRtR01B3FJaZBE8t_0bOC_8Bbey9ccwVlZH0jg/edit#gid=56711214")
# browseURL(url)
gs <- as_sheets_id(url)

(data <- gs %>%
    range_read("fb"))

#> Reading from "cebolla jguerrero"
#> Range "'fb'"
#> # A tibble: 36 x 43
#>    treat     n bloque cultivar fuenten dosisn dosis aftotal    ss pungencia
#>    <chr> <dbl>  <dbl> <list>   <chr>    <dbl> <dbl>   <dbl> <dbl>     <dbl>
#>  1 1-PK~     1      1 <dbl [1~ contro~      0     0    437.   6.6       4.5
#>  2 1-0-0     2      1 <dbl [1~ control      0     0    339.   7.8       4.1
#>  3 1-U-~     6      1 <dbl [1~ U          100   100    600    5.6       4.4
#>  4 1-U-~     8      2 <dbl [1~ U          100   100    425.   7.2       5  
#>  5 1-U-~    11      3 <dbl [1~ U          100   100    847.   7         4.3
#>  6 1-U-~    14      4 <dbl [1~ U          100   100    500    7.2       4.4
#>  7 1-S-~     3      1 <dbl [1~ SA         100   100    286.   7.8       4.4
#>  8 1-S-~    10      2 <dbl [1~ SA         100   100    444.   6         4.3
#>  9 1-S-~    15      3 <dbl [1~ SA         100   100    520.   8.4       4  
#> 10 1-S-~    18      4 <dbl [1~ SA         100   100    370.   6.2       4.2
#> # ... with 26 more rows, and 33 more variables: rendexportable <dbl>,
#> #   rendnoexportable <dbl>, rendtotal <dbl>, prendexportable <dbl>,
#> #   prendnoexportable <dbl>, pmenormedium <dbl>, pmedium <dbl>, pjumbo <dbl>,
#> #   pcolosal <dbl>, psupercolosal <dbl>, pmrb <dbl>, pmrc <dbl>, pmhb <dbl>,
#> #   pmhneta <dbl>, pmmfbulbo <dbl>, pmmfhojas <dbl>, pmmsbulbo <dbl>,
#> #   pmmshojas <dbl>, pmnhojas <dbl>, smrb <dbl>, smrc <dbl>, smhb <dbl>,
#> #   smhneta <dbl>, smmfbulbo <dbl>, smmfhojas <dbl>, smmsbulbo <dbl>,
#> #   smmshojas <dbl>, smnhojas <dbl>, azufresuelo <dbl>, sulfatoshojas <dbl>,
#> #   shojas <dbl>, sulfatosbulbo <dbl>, sbulbo <dbl>

smrfb <- fieldbook_summary(data
                 , last_factor = "dosis"
                 , model_facts = "bloque + cultivar*fuenteN*dosis"
                 , comp_facts = "cultivar:fuenteN:dosis"
                 )
smrfb

#> # A tibble: 43 x 8
#>    variables  type  levels   NAs model_facts    comp_facts   test_comp sig_level
#>    <chr>      <chr>  <int> <int> <chr>          <chr>        <chr>         <dbl>
#>  1 bloque     fact~      4    NA NA             NA           NA            NA   
#>  2 cultivar   fact~      2    NA NA             NA           NA            NA   
#>  3 dosis      fact~      3    NA NA             NA           NA            NA   
#>  4 dosisn     fact~      3    NA NA             NA           NA            NA   
#>  5 fuenten    fact~      4    NA NA             NA           NA            NA   
#>  6 n          fact~     36    NA NA             NA           NA            NA   
#>  7 treat      fact~     12    NA NA             NA           NA            NA   
#>  8 aftotal    nume~     36     0 bloque + cult~ cultivar:fu~ SNK            0.05
#>  9 azufresue~ nume~     36     0 bloque + cult~ cultivar:fu~ SNK            0.05
#> 10 pcolosal   nume~     36     0 bloque + cult~ cultivar:fu~ SNK            0.05
#> # ... with 33 more rows
…
