Heritability in plant breeding — H2cal • inti
…
#> # A tibble: 1 x 16
#>   variable   rep  geno   env  year  mean   std   min   max   V.g V.gxl V.gxy
#>   <chr>    <dbl> <dbl> <dbl> <dbl> <dbl> <dbl> <dbl> <dbl> <dbl> <dbl> <dbl>
#> 1 yield        3    24     1     1  4.43 0.420  3.44  5.04 0.146     0     0
#> # ... with 4 more variables: V.e <dbl>, h2.s <dbl>, h2.c <dbl>, h2.p <dbl>
 hr$blups

#> # A tibble: 24 x 2
#>    gen   yield
#>    <chr> <dbl>
#>  1 G01    4.97
#>  2 G02    4.47
#>  3 G03    3.62
#>  4 G04    4.58
#>  5 G05    4.57
#>  6 G06    4.50
#>  7 G07    4.10
#>  8 G08    4.57
#>  9 G09    3.56
#> 10 G10    4.33
#> # ... with 14 more rows
 hr$blues

#> # A tibble: 24 x 6
#>    gen   yield    SE    df lower.CL upper.CL
#>    <fct> <dbl> <dbl> <dbl>    <dbl>    <dbl>
#>  1 G01    5.04 0.129  42.6     4.78     5.30
#>  2 G02    4.43 0.129  42.6     4.17     4.69
#>  3 G03    3.53 0.131  42.7     3.27     3.80
#>  4 G04    4.59 0.131  42.7     4.33     4.86
#>  5 G05    4.55 0.154  40.6     4.23     4.86
#>  6 G06    4.55 0.130  42.6     4.29     4.81
#>  7 G07    4.05 0.129  42.6     3.79     4.31
#>  8 G08    4.25 0.153  40.5     3.94     4.56
#>  9 G09    3.44 0.131  42.7     3.17     3.70
#> 10 G10    4.30 0.129  42.6     4.04     4.56
#> # ... with 14 more rows
…
